%!PS-Adobe-2.0 EPSF-2.0
%%Creator: OKS Library, <Igor.Soloviev@cern.ch>, CERN
%%Title: unknown
%%BoundingBox: 20 554 575 795
%%Pages: 1
%%DocumentFonts: Helvetica-Narrow Times-Roman Helvetica
%%EndComments

% set image font
/Helvetica-Narrow findfont
5.60 scalefont
setfont

gsave
0.47 setlinewidth
0.17 0.17 0.17 setrgbcolor
 131.93 710.12 moveto 128.20 702.66 lineto stroke
 131.93 710.12 moveto 135.66 702.66 lineto stroke
 128.20 702.66 moveto 135.66 702.66 lineto stroke
 131.93 702.66 moveto 131.93 686.80 lineto stroke
 131.93 686.80 moveto 80.63 686.80 lineto stroke
 80.63 686.80 moveto 80.63 673.74 lineto stroke
 80.63 649.02 moveto 77.83 644.82 lineto stroke
 80.63 649.02 moveto 83.43 644.82 lineto stroke
 77.83 644.82 moveto 80.63 640.63 lineto stroke
 83.43 644.82 moveto 80.63 640.63 lineto stroke
 80.63 640.63 moveto 80.63 617.31 lineto stroke
 462.60 751.16 moveto 466.80 748.36 lineto stroke
 462.60 751.16 moveto 466.80 753.96 lineto stroke
 466.80 748.36 moveto 471.00 751.16 lineto stroke
 466.80 753.96 moveto 471.00 751.16 lineto stroke
 471.00 751.16 moveto 503.18 751.16 lineto stroke
 503.18 751.16 moveto 503.18 625.24 lineto stroke
 406.17 652.75 moveto 402.44 645.29 lineto stroke
 406.17 652.75 moveto 409.90 645.29 lineto stroke
 402.44 645.29 moveto 409.90 645.29 lineto stroke
 406.17 645.29 moveto 406.17 635.50 lineto stroke
 406.17 635.50 moveto 459.80 635.50 lineto stroke
 459.80 635.50 moveto 459.80 625.24 lineto stroke
 350.20 752.56 moveto 346.00 749.76 lineto stroke
 350.20 752.56 moveto 346.00 755.36 lineto stroke
 346.00 749.76 moveto 341.81 752.56 lineto stroke
 346.00 755.36 moveto 341.81 752.56 lineto stroke
 341.81 752.56 moveto 315.22 752.56 lineto stroke
 315.22 752.56 moveto 315.22 622.90 lineto stroke
 406.17 652.75 moveto 402.44 645.29 lineto stroke
 406.17 652.75 moveto 409.90 645.29 lineto stroke
 402.44 645.29 moveto 409.90 645.29 lineto stroke
 406.17 645.29 moveto 406.17 635.50 lineto stroke
 406.17 635.50 moveto 355.80 635.50 lineto stroke
 355.80 635.50 moveto 355.80 622.90 lineto stroke
 131.93 710.12 moveto 128.20 702.66 lineto stroke
 131.93 710.12 moveto 135.66 702.66 lineto stroke
 128.20 702.66 moveto 135.66 702.66 lineto stroke
 131.93 702.66 moveto 131.93 686.80 lineto stroke
 131.93 686.80 moveto 190.23 686.80 lineto stroke
 190.23 686.80 moveto 190.23 673.74 lineto stroke
 131.47 595.85 moveto 174.84 595.85 lineto stroke
grestore
gsave
0.93 setlinewidth
0.17 0.17 0.17 setrgbcolor
 356.26 710.58 moveto 465.40 710.58 lineto stroke
 465.40 710.58 moveto 465.40 653.22 lineto stroke
 356.26 710.58 moveto 356.26 653.22 lineto stroke
 356.26 653.22 moveto 465.40 653.22 lineto stroke
 356.26 699.86 moveto 465.40 699.86 lineto stroke
 356.26 656.02 moveto 465.40 656.02 lineto stroke
 144.53 673.27 moveto 231.74 673.27 lineto stroke
 231.74 673.27 moveto 231.74 632.70 lineto stroke
 144.53 673.27 moveto 144.53 632.70 lineto stroke
 144.53 632.70 moveto 231.74 632.70 lineto stroke
 144.53 662.55 moveto 231.74 662.55 lineto stroke
 144.53 635.50 moveto 231.74 635.50 lineto stroke
 175.31 620.57 moveto 261.12 620.57 lineto stroke
 261.12 620.57 moveto 261.12 571.60 lineto stroke
 175.31 620.57 moveto 175.31 571.60 lineto stroke
 175.31 571.60 moveto 261.12 571.60 lineto stroke
 175.31 609.84 moveto 261.12 609.84 lineto stroke
 175.31 574.40 moveto 261.12 574.40 lineto stroke
 35.39 616.84 moveto 131.00 616.84 lineto stroke
 131.00 616.84 moveto 131.00 576.26 lineto stroke
 35.39 616.84 moveto 35.39 576.26 lineto stroke
 35.39 576.26 moveto 131.00 576.26 lineto stroke
 35.39 606.11 moveto 131.00 606.11 lineto stroke
 35.39 579.06 moveto 131.00 579.06 lineto stroke
 350.67 783.81 moveto 462.13 783.81 lineto stroke
 462.13 783.81 moveto 462.13 718.05 lineto stroke
 350.67 783.81 moveto 350.67 718.05 lineto stroke
 350.67 718.05 moveto 462.13 718.05 lineto stroke
 350.67 773.08 moveto 462.13 773.08 lineto stroke
 350.67 720.84 moveto 462.13 720.84 lineto stroke
 87.16 784.74 moveto 175.31 784.74 lineto stroke
 175.31 784.74 moveto 175.31 710.58 lineto stroke
 87.16 784.74 moveto 87.16 710.58 lineto stroke
 87.16 710.58 moveto 175.31 710.58 lineto stroke
 87.16 774.01 moveto 175.31 774.01 lineto stroke
 87.16 713.38 moveto 175.31 713.38 lineto stroke
 288.17 622.44 moveto 380.05 622.44 lineto stroke
 380.05 622.44 moveto 380.05 556.68 lineto stroke
 288.17 622.44 moveto 288.17 556.68 lineto stroke
 288.17 556.68 moveto 380.05 556.68 lineto stroke
 288.17 611.71 moveto 380.05 611.71 lineto stroke
 288.17 559.47 moveto 380.05 559.47 lineto stroke
 437.42 624.77 moveto 545.15 624.77 lineto stroke
 545.15 624.77 moveto 545.15 584.19 lineto stroke
 437.42 624.77 moveto 437.42 584.19 lineto stroke
 437.42 584.19 moveto 545.15 584.19 lineto stroke
 437.42 614.04 moveto 545.15 614.04 lineto stroke
 437.42 586.99 moveto 545.15 586.99 lineto stroke
 31.66 673.27 moveto 130.07 673.27 lineto stroke
 130.07 673.27 moveto 130.07 649.49 lineto stroke
 31.66 673.27 moveto 31.66 649.49 lineto stroke
 31.66 649.49 moveto 130.07 649.49 lineto stroke
 31.66 662.55 moveto 130.07 662.55 lineto stroke
 31.66 652.29 moveto 130.07 652.29 lineto stroke
grestore
 82.50 631.76 moveto (Subscriptions) show
 68.50 620.57 moveto (1..N) show
 505.04 754.42 moveto (DownsampleCacheConfig) show
 491.98 628.50 moveto (0..1) show
 260.19 746.03 moveto (MergerConfiguration) show
 304.03 626.17 moveto (0..1) show
 145.46 599.12 moveto (Types) show
 163.65 589.32 moveto (0..1) show
 389.38 703.12 moveto (PBeastZipConfig) show
 358.13 692.86 moveto (ZipCatalog: bool = 'true') show
 358.13 684.47 moveto (ZipIntegerTypeData: bool = 'false') show
 358.13 676.07 moveto (ZipFloatingPointTypeData: bool = 'false') show
 358.13 667.68 moveto (ZipStringTypeData: bool = 'true') show
 358.13 659.28 moveto (CatalogizeStringsData: bool = 'true') show
 147.32 665.81 moveto (PBeastWebReceiverApplication) show
 146.39 655.55 moveto (HttpPort: u32 = '8080') show
 146.39 647.16 moveto (HttpThreadPoolSize: u32 = '16') show
 146.39 638.76 moveto (HttpTimeout: u32 = '15') show
 185.57 613.11 moveto (PBeastSubscriptionTypes) show
 177.17 602.85 moveto (Name: string) show
 177.17 594.45 moveto (IncludeSubTypes: bool = 'true') show
 177.17 586.06 moveto (ExcludeThisType: bool = 'false') show
 177.17 577.66 moveto (CriteriaLogic: enum = 'AND') show
 58.24 609.38 moveto (PBeastSubscription) show
 37.26 599.12 moveto (ReadWhenSubscribe: bool = 'false') show
 37.26 590.72 moveto (Servers: list of string) show
 37.26 582.33 moveto (InfoNames: string) show
 369.32 776.34 moveto (PBeastRepositoryApplication) show
 352.53 766.08 moveto (LocalRepositoryPath: string) show
 352.53 757.69 moveto (RepositoryPath: string) show
 352.53 749.29 moveto (PublishLocalRepositoryInfo: bool = 'false') show
 352.53 740.90 moveto (PublishRepositoryInfo: bool = 'true') show
 352.53 732.50 moveto (MaxResponseSize: string = '1800m') show
 352.53 724.11 moveto (SeriesInfoMaxSize: string = '10g') show
 96.02 777.28 moveto (PBeastReceiverApplication) show
 89.03 767.02 moveto (RepositoryDirName: string) show
 89.03 758.62 moveto (MaxSaveDelay: u32 = '7200') show
 89.03 750.23 moveto (MaxDataSize: u32 = '10000000') show
 89.03 741.83 moveto (MaxFileSize: u32 = '1000000') show
 89.03 733.44 moveto (MaxDataDelay: u32 = '30') show
 89.03 725.04 moveto (FlushDataThreshold: u8 = '10') show
 89.03 716.65 moveto (SaveCheckInterval: u32 = '5') show
 307.76 614.97 moveto (PBeastMergerConfig) show
 290.04 604.71 moveto (EOSRepositoryDirectory: string) show
 290.04 596.32 moveto (SleepInterval: u32 = '120') show
 290.04 587.92 moveto (DataSplitDuration: string = '1w') show
 290.04 579.53 moveto (DataGroupMaxSize: string = '10g') show
 290.04 571.13 moveto (MaxReceiverDelay: u32 = '24') show
 290.04 562.74 moveto (DiskBalanceThreshold: u8 = '10') show
 449.08 617.31 moveto (PBeastDownsampleCacheConfig) show
 439.28 607.05 moveto (CachePath: string) show
 439.28 598.65 moveto (CacheMaxSize: string = '256g') show
 439.28 590.26 moveto (DownsampleThreadsPoolSize: u32 = '4') show
 57.31 665.81 moveto (PBeastApplication) show
 33.53 655.55 moveto (IS_ServersCheckInterval: u32 = '60') show

% set header font
/Times-Roman findfont
10 scalefont
setfont

 20.00 820.00 moveto (P-BEAST Configuration) show
 20.00 805.00 moveto (Date: 2021-Jul-28 10:08:16) show

% set footer font
/Helvetica findfont
8 scalefont
setfont

 20.00 538.00 moveto (Database files:) show
 20.00 523.00 moveto (- 'daq/schema/core.schema.xml') show
 20.00 508.00 moveto (- 'daq/schema/pbeast.schema.xml') show
showpage
